#
# A fatal error has been detected by the Java Runtime Environment:
#
#  SIGSEGV (0xb) at pc=0x00007fff859360dd, pid=5430, tid=1299
#
# JRE version: Java(TM) SE Runtime Environment (8.0_20-b26) (build 1.8.0_20-b26)
# Java VM: Java HotSpot(TM) 64-Bit Server VM (25.20-b23 mixed mode bsd-amd64 compressed oops)
# Problematic frame:
# C  [libobjc.A.dylib+0x10dd]  objc_msgSend+0x1d
#
# Failed to write core dump. Core dumps have been disabled. To enable core dumping, try "ulimit -c unlimited" before starting Java again
#
# If you would like to submit a bug report, please visit:
#   http://bugreport.sun.com/bugreport/crash.jsp
# The crash happened outside the Java Virtual Machine in native code.
# See problematic frame for where to report the bug.
#

---------------  T H R E A D  ---------------

Current thread (0x00007fc8b3013000):  JavaThread "AppKit Thread" daemon [_thread_in_native, id=1299, stack(0x00007fff5a247000,0x00007fff5aa47000)]

siginfo: si_signo: 11 (SIGSEGV), si_code: 1 (SEGV_MAPERR), si_addr: 0x00007fff00000018

Registers:
RAX=0x00007fc8b257d640, RBX=0x00007fff5aa420b8, RCX=0x0000000000000000, RDX=0x00007fc8b275cc90
RSP=0x00007fff5aa41ed8, RBP=0x00007fff5aa41ee0, RSI=0x00007fff89fc97b5, RDI=0x00007fc8b257d640
R8 =0x00007fff5aa41ec0, R9 =0x0000000000000055, R10=0x00007fff89fc97b5, R11=0x00007fff00000000
R12=0x00007fc8b2604150, R13=0x00000000000f42ec, R14=0x00007fc8b2475250, R15=0x00007fff5aa42018
RIP=0x00007fff859360dd, EFLAGS=0x0000000000010206, ERR=0x0000000000000004
  TRAPNO=0x000000000000000e

Top of Stack: (sp=0x00007fff5aa41ed8)
0x00007fff5aa41ed8:   00007fff85d15b4c 00007fff5aa42240
0x00007fff5aa41ee8:   00007fff85c06ff4 00007fff5aa41f6c
0x00007fff5aa41ef8:   00007fff5aa41f70 00007fff5aa41f74
0x00007fff5aa41f08:   00007fff762f0d18 ffffffffffffffff
0x00007fff5aa41f18:   00000000000007f8 00007fff762f0d30
0x00007fff5aa41f28:   00007fc8b2475250 0000000000000000
0x00007fff5aa41f38:   00007fff5aa42010 0000000000000000
0x00007fff5aa41f48:   00007fc8b4212090 00007fff5aa42090
0x00007fff5aa41f58:   0000000000000055 00000000000f42ee
0x00007fff5aa41f68:   00007fc8b275cc90 00007fc8b4211b30
0x00007fff5aa41f78:   00007fc8b2604150 0000000000000001
0x00007fff5aa41f88:   00000000000f42ec 00007fc8b2604140
0x00007fff5aa41f98:   00007fff8b3b6233 00000001b4100000
0x00007fff5aa41fa8:   00007fff774690d0 0000000042000000
0x00007fff5aa41fb8:   00007fff8b3bd303 00007fff762bb210
0x00007fff5aa41fc8:   00007fff5aa42098 0000000000000000
0x00007fff5aa41fd8:   00007fff754978c8 0000000000000000
0x00007fff5aa41fe8:   000000000000001a 0002700300000001
0x00007fff5aa41ff8:   00007fc8b2604174 0000000000000000
0x00007fff5aa42008:   00000000003ccb01 00007fc8b4212110
0x00007fff5aa42018:   00007fc8b2475250 0000000000000000
0x00007fff5aa42028:   00007fff8a0019f3 00007fff5aa420d0
0x00007fff5aa42038:   00007fff9400e513 00007fff5aa420b4
0x00007fff5aa42048:   00000000003ccc01 00000000ffffffff
0x00007fff5aa42058:   00007fff754978c8 00000000003ccc00
0x00007fff5aa42068:   00007fff00000000 00007fff5aa42160
0x00007fff5aa42078:   00007fff85f9bedc 00007fff754978e8
0x00007fff5aa42088:   00007fff8a0019f3 0000000000000051
0x00007fff5aa42098:   0000000000000000 00000000000f42e1
0x00007fff5aa420a8:   0000000000000053 0000000000000000
0x00007fff5aa420b8:   00000000000f42ec 00007fff5aa42134
0x00007fff5aa420c8:   00000000003cd701 00000000ffffffff 

Instructions: (pc=0x00007fff859360dd)
0x00007fff859360bd:   00 00 00 48 85 ff 2e 74 7a 40 f6 c7 01 2e 75 7e
0x00007fff859360cd:   49 bb f8 ff ff ff ff 7f 00 00 4c 23 1f 49 89 f2
0x00007fff859360dd:   45 23 53 18 49 c1 e2 04 4d 03 53 10 49 3b 32 75
0x00007fff859360ed:   04 41 ff 62 08 49 83 3a 00 74 6a 4d 3b 53 10 74 

Register to memory mapping:

RAX=0x00007fc8b257d640 is an unknown value
RBX=0x00007fff5aa420b8 is pointing into the stack for thread: 0x00007fc8b3013000
RCX=0x0000000000000000 is an unknown value
RDX=0x00007fc8b275cc90 is an unknown value
RSP=0x00007fff5aa41ed8 is pointing into the stack for thread: 0x00007fc8b3013000
RBP=0x00007fff5aa41ee0 is pointing into the stack for thread: 0x00007fc8b3013000
RSI=0x00007fff89fc97b5: -[NSTitlebarContainerView transparent]+0x5d3dc in /System/Library/Frameworks/AppKit.framework/Versions/C/AppKit at 0x00007fff895ea000
RDI=0x00007fc8b257d640 is an unknown value
R8 =0x00007fff5aa41ec0 is pointing into the stack for thread: 0x00007fc8b3013000
R9 =0x0000000000000055 is an unknown value
R10=0x00007fff89fc97b5: -[NSTitlebarContainerView transparent]+0x5d3dc in /System/Library/Frameworks/AppKit.framework/Versions/C/AppKit at 0x00007fff895ea000
R11=0x00007fff00000000 is an unknown value
R12=0x00007fc8b2604150 is an unknown value
R13=0x00000000000f42ec is an unknown value
R14=0x00007fc8b2475250 is an unknown value
R15=0x00007fff5aa42018 is pointing into the stack for thread: 0x00007fc8b3013000


Stack: [0x00007fff5a247000,0x00007fff5aa47000],  sp=0x00007fff5aa41ed8,  free space=8171k
Native frames: (J=compiled Java code, j=interpreted, Vv=VM code, C=native code)
C  [libobjc.A.dylib+0x10dd]  objc_msgSend+0x1d
C  [CoreFoundation+0xfff4]  _CFXNotificationPost+0xc44
C  [Foundation+0x7601]  -[NSNotificationCenter postNotificationName:object:userInfo:]+0x42
C  [AppKit+0x43122]  -[NSSurface _disposeSurface]+0x98
C  [AppKit+0x42b86]  -[NSSurface setWindow:]+0x42
C  [AppKit+0x331bf]  -[NSView _setWindow:]+0xa22
C  [AppKit+0x6c582]  -[NSView removeFromSuperview]+0x1c5
C  [AppKit+0x14cf1a]  -[NSView removeFromSuperviewWithoutNeedingDisplay]+0x26
C  [liblwjgl.dylib+0xa205]  +[MacOSXKeyableWindow destroyWindow]+0xb5
C  [Foundation+0x92920]  __NSThreadPerformPerform+0x125
C  [CoreFoundation+0x803c1]  __CFRUNLOOP_IS_CALLING_OUT_TO_A_SOURCE0_PERFORM_FUNCTION__+0x11
C  [CoreFoundation+0x7254d]  __CFRunLoopDoSources0+0x10d
C  [CoreFoundation+0x71b7f]  __CFRunLoopRun+0x39f
C  [CoreFoundation+0x71598]  CFRunLoopRunSpecific+0x128
C  [HIToolbox+0x31c4f]  RunCurrentEventLoopInMode+0xeb
C  [HIToolbox+0x319ca]  ReceiveNextEventCommon+0x1af
C  [HIToolbox+0x3180b]  _BlockUntilNextEventMatchingListInModeWithFilter+0x47
C  [AppKit+0x92a91]  _DPSNextEvent+0x3c4
C  [AppKit+0x92090]  -[NSApplication nextEventMatchingMask:untilDate:inMode:dequeue:]+0xc2
C  [libosxapp.dylib+0x242a]  -[NSApplicationAWT nextEventMatchingMask:untilDate:inMode:dequeue:]+0x7c
C  [AppKit+0x87d93]  -[NSApplication run]+0x252
C  [libosxapp.dylib+0x223e]  +[NSApplicationAWT runAWTLoopWithApp:]+0x9c
C  [libawt_lwawt.dylib+0x4494f]  -[AWTStarter starter:]+0x389
C  [Foundation+0x92920]  __NSThreadPerformPerform+0x125
C  [CoreFoundation+0x803c1]  __CFRUNLOOP_IS_CALLING_OUT_TO_A_SOURCE0_PERFORM_FUNCTION__+0x11
C  [CoreFoundation+0x7254d]  __CFRunLoopDoSources0+0x10d
C  [CoreFoundation+0x71b7f]  __CFRunLoopRun+0x39f
C  [CoreFoundation+0x71598]  CFRunLoopRunSpecific+0x128
C  [java+0x56cc]  CreateExecutionEnvironment+0x367
C  [java+0x165c]  JLI_Launch+0x7a0
C  [java+0x768a]  main+0x65
C  [java+0xeb4]  start+0x34
C  0x0000000000000009


---------------  P R O C E S S  ---------------

Java Threads: ( => current thread )
  0x00007fc8b382a000 JavaThread "AWT-Shutdown" [_thread_blocked, id=32007, stack(0x0000000126a4b000,0x0000000126b4b000)]
=>0x00007fc8b3013000 JavaThread "AppKit Thread" daemon [_thread_in_native, id=1299, stack(0x00007fff5a247000,0x00007fff5aa47000)]
  0x00007fc8b507a800 JavaThread "Monitor Ctrl-Break" daemon [_thread_in_native, id=21763, stack(0x0000000125091000,0x0000000125191000)]
  0x00007fc8b3807800 JavaThread "Service Thread" daemon [_thread_blocked, id=20739, stack(0x0000000124d2a000,0x0000000124e2a000)]
  0x00007fc8b282b800 JavaThread "C1 CompilerThread3" daemon [_thread_blocked, id=20227, stack(0x0000000124c27000,0x0000000124d27000)]
  0x00007fc8b282a800 JavaThread "C2 CompilerThread2" daemon [_thread_blocked, id=19715, stack(0x0000000124b24000,0x0000000124c24000)]
  0x00007fc8b282a000 JavaThread "C2 CompilerThread1" daemon [_thread_blocked, id=19203, stack(0x0000000124a21000,0x0000000124b21000)]
  0x00007fc8b502c000 JavaThread "C2 CompilerThread0" daemon [_thread_blocked, id=18691, stack(0x000000012491e000,0x0000000124a1e000)]
  0x00007fc8b5048000 JavaThread "Signal Dispatcher" daemon [_thread_blocked, id=15379, stack(0x000000012481b000,0x000000012491b000)]
  0x00007fc8b5046800 JavaThread "Finalizer" daemon [_thread_blocked, id=13571, stack(0x0000000122e20000,0x0000000122f20000)]
  0x00007fc8b5045800 JavaThread "Reference Handler" daemon [_thread_blocked, id=13059, stack(0x0000000122d1d000,0x0000000122e1d000)]
  0x00007fc8b4800000 JavaThread "main" [_thread_in_native, id=4867, stack(0x00000001052cf000,0x00000001053cf000)]

Other Threads:
  0x00007fc8b5041000 VMThread [stack: 0x0000000122c1a000,0x0000000122d1a000] [id=12547]
  0x00007fc8b3808800 WatcherThread [stack: 0x0000000124e2d000,0x0000000124f2d000] [id=21251]

VM state:not at safepoint (normal execution)

VM Mutex/Monitor currently owned by a thread: None

Heap:
 PSYoungGen      total 76288K, used 13116K [0x000000076ab00000, 0x0000000770000000, 0x00000007c0000000)
  eden space 65536K, 20% used [0x000000076ab00000,0x000000076b7cf140,0x000000076eb00000)
  from space 10752K, 0% used [0x000000076f580000,0x000000076f580000,0x0000000770000000)
  to   space 10752K, 0% used [0x000000076eb00000,0x000000076eb00000,0x000000076f580000)
 ParOldGen       total 175104K, used 0K [0x00000006c0000000, 0x00000006cab00000, 0x000000076ab00000)
  object space 175104K, 0% used [0x00000006c0000000,0x00000006c0000000,0x00000006cab00000)
 Metaspace       used 6726K, capacity 6845K, committed 6912K, reserved 1056768K
  class space    used 693K, capacity 725K, committed 768K, reserved 1048576K

Card table byte_map: [0x000000011670f000,0x0000000116f10000] byte_map_base: 0x000000011310f000

Marking Bits: (ParMarkBitMap*) 0x0000000106c9c330
 Begin Bits: [0x0000000117c7e000, 0x000000011bc7e000)
 End Bits:   [0x000000011bc7e000, 0x000000011fc7e000)

Polling page: 0x00000001053df000

CodeCache: size=245760Kb used=2194Kb max_used=2205Kb free=243565Kb
 bounds [0x000000010734f000, 0x00000001075bf000, 0x000000011634f000]
 total_blobs=871 nmethods=509 adapters=277
 compilation: enabled

Compilation events (10 events):
Event: 4.140 Thread 0x00007fc8b282b800  504       3       java.nio.Bits::int2 (6 bytes)
Event: 4.140 Thread 0x00007fc8b282b800 nmethod 504 0x00000001075729d0 code [0x0000000107572b20, 0x0000000107572c50]
Event: 4.140 Thread 0x00007fc8b282b800  505       3       java.nio.Bits::int1 (6 bytes)
Event: 4.140 Thread 0x00007fc8b282b800 nmethod 505 0x00000001075726d0 code [0x0000000107572820, 0x0000000107572950]
Event: 4.140 Thread 0x00007fc8b282b800  506       3       java.nio.Bits::int0 (3 bytes)
Event: 4.140 Thread 0x00007fc8b282b800 nmethod 506 0x00000001075723d0 code [0x0000000107572520, 0x0000000107572650]
Event: 4.335 Thread 0x00007fc8b282b800  508       1       java.security.PrivilegedActionException::getException (5 bytes)
Event: 4.335 Thread 0x00007fc8b282b800 nmethod 508 0x0000000107572110 code [0x0000000107572260, 0x0000000107572370]
Event: 4.336 Thread 0x00007fc8b282a800  509       4       java.nio.DirectByteBuffer::put (18 bytes)
Event: 4.337 Thread 0x00007fc8b282a800 nmethod 509 0x0000000107571e90 code [0x0000000107571fe0, 0x0000000107572078]

GC Heap History (0 events):
No events

Deoptimization events (0 events):
No events

Internal exceptions (10 events):
Event: 0.515 Thread 0x00007fc8b4800000 Exception <a 'java/security/PrivilegedActionException'> (0x000000076b66df18) thrown at [/HUDSON3/workspace/8-2-build-macosx-x86_64/jdk8u20/1074/hotspot/src/share/vm/prims/jvm.cpp, line 1275]
Event: 0.516 Thread 0x00007fc8b4800000 Exception <a 'java/security/PrivilegedActionException'> (0x000000076b673b28) thrown at [/HUDSON3/workspace/8-2-build-macosx-x86_64/jdk8u20/1074/hotspot/src/share/vm/prims/jvm.cpp, line 1275]
Event: 0.516 Thread 0x00007fc8b4800000 Exception <a 'java/security/PrivilegedActionException'> (0x000000076b6796e0) thrown at [/HUDSON3/workspace/8-2-build-macosx-x86_64/jdk8u20/1074/hotspot/src/share/vm/prims/jvm.cpp, line 1275]
Event: 0.516 Thread 0x00007fc8b4800000 Exception <a 'java/security/PrivilegedActionException'> (0x000000076b67f1f0) thrown at [/HUDSON3/workspace/8-2-build-macosx-x86_64/jdk8u20/1074/hotspot/src/share/vm/prims/jvm.cpp, line 1275]
Event: 0.517 Thread 0x00007fc8b4800000 Exception <a 'java/security/PrivilegedActionException'> (0x000000076b684b78) thrown at [/HUDSON3/workspace/8-2-build-macosx-x86_64/jdk8u20/1074/hotspot/src/share/vm/prims/jvm.cpp, line 1275]
Event: 0.518 Thread 0x00007fc8b4800000 Exception <a 'java/security/PrivilegedActionException'> (0x000000076b689e08) thrown at [/HUDSON3/workspace/8-2-build-macosx-x86_64/jdk8u20/1074/hotspot/src/share/vm/prims/jvm.cpp, line 1275]
Event: 0.542 Thread 0x00007fc8b4800000 Exception <a 'java/security/PrivilegedActionException'> (0x000000076b6fd228) thrown at [/HUDSON3/workspace/8-2-build-macosx-x86_64/jdk8u20/1074/hotspot/src/share/vm/prims/jvm.cpp, line 1275]
Event: 0.544 Thread 0x00007fc8b4800000 Exception <a 'java/security/PrivilegedActionException'> (0x000000076b706210) thrown at [/HUDSON3/workspace/8-2-build-macosx-x86_64/jdk8u20/1074/hotspot/src/share/vm/prims/jvm.cpp, line 1275]
Event: 0.545 Thread 0x00007fc8b4800000 Exception <a 'java/security/PrivilegedActionException'> (0x000000076b70c2f8) thrown at [/HUDSON3/workspace/8-2-build-macosx-x86_64/jdk8u20/1074/hotspot/src/share/vm/prims/jvm.cpp, line 1275]
Event: 4.335 Thread 0x00007fc8b4800000 Exception <a 'java/security/PrivilegedActionException'> (0x000000076b712618) thrown at [/HUDSON3/workspace/8-2-build-macosx-x86_64/jdk8u20/1074/hotspot/src/share/vm/prims/jvm.cpp, line 1275]

Events (10 events):
Event: 0.542 loading class org/lwjgl/opengl/GLChecks
Event: 0.542 loading class org/lwjgl/opengl/GLChecks done
Event: 0.544 loading class org/lwjgl/opengl/Sync
Event: 0.544 loading class org/lwjgl/opengl/Sync done
Event: 0.545 loading class org/lwjgl/opengl/Sync$RunningAvg
Event: 0.545 loading class org/lwjgl/opengl/Sync$RunningAvg done
Event: 4.098 Executing VM operation: EnableBiasedLocking
Event: 4.098 Executing VM operation: EnableBiasedLocking done
Event: 4.335 loading class org/lwjgl/opengl/CallbackUtil
Event: 4.335 loading class org/lwjgl/opengl/CallbackUtil done


Dynamic libraries:
0x00000000053fb000 	/System/Library/Frameworks/Cocoa.framework/Versions/A/Cocoa
0x00000000053fb000 	/System/Library/Frameworks/Security.framework/Versions/A/Security
0x00000000053fb000 	/System/Library/Frameworks/ApplicationServices.framework/Versions/A/ApplicationServices
0x00000000053fb000 	/usr/lib/libz.1.dylib
0x00000000053fb000 	/usr/lib/libSystem.B.dylib
0x00000000053fb000 	/usr/lib/libobjc.A.dylib
0x00000000053fb000 	/System/Library/Frameworks/CoreFoundation.framework/Versions/A/CoreFoundation
0x00000000053fb000 	/System/Library/Frameworks/Foundation.framework/Versions/C/Foundation
0x00000000053fb000 	/System/Library/Frameworks/AppKit.framework/Versions/C/AppKit
0x00000000053fb000 	/System/Library/Frameworks/CoreData.framework/Versions/A/CoreData
0x00000000053fb000 	/System/Library/PrivateFrameworks/RemoteViewServices.framework/Versions/A/RemoteViewServices
0x00000000053fb000 	/System/Library/PrivateFrameworks/UIFoundation.framework/Versions/A/UIFoundation
0x00000000053fb000 	/System/Library/Frameworks/IOSurface.framework/Versions/A/IOSurface
0x00000000053fb000 	/System/Library/Frameworks/AudioToolbox.framework/Versions/A/AudioToolbox
0x00000000053fb000 	/System/Library/Frameworks/AudioUnit.framework/Versions/A/AudioUnit
0x00000000053fb000 	/System/Library/PrivateFrameworks/DataDetectorsCore.framework/Versions/A/DataDetectorsCore
0x00000000053fb000 	/System/Library/PrivateFrameworks/DesktopServicesPriv.framework/Versions/A/DesktopServicesPriv
0x00000000053fb000 	/System/Library/Frameworks/Carbon.framework/Versions/A/Frameworks/HIToolbox.framework/Versions/A/HIToolbox
0x00000000053fb000 	/System/Library/Frameworks/QuartzCore.framework/Versions/A/QuartzCore
0x00000000053fb000 	/System/Library/Frameworks/Carbon.framework/Versions/A/Frameworks/SpeechRecognition.framework/Versions/A/SpeechRecognition
0x00000000053fb000 	/usr/lib/libauto.dylib
0x00000000053fb000 	/usr/lib/libicucore.A.dylib
0x00000000053fb000 	/usr/lib/libxml2.2.dylib
0x00000000053fb000 	/System/Library/PrivateFrameworks/CoreUI.framework/Versions/A/CoreUI
0x00000000053fb000 	/System/Library/Frameworks/CoreAudio.framework/Versions/A/CoreAudio
0x00000000053fb000 	/System/Library/Frameworks/DiskArbitration.framework/Versions/A/DiskArbitration
0x00000000053fb000 	/usr/lib/liblangid.dylib
0x00000000053fb000 	/System/Library/PrivateFrameworks/MultitouchSupport.framework/Versions/A/MultitouchSupport
0x00000000053fb000 	/System/Library/Frameworks/IOKit.framework/Versions/A/IOKit
0x00000000053fb000 	/usr/lib/libDiagnosticMessagesClient.dylib
0x00000000053fb000 	/System/Library/Frameworks/CoreServices.framework/Versions/A/CoreServices
0x00000000053fb000 	/System/Library/PrivateFrameworks/PerformanceAnalysis.framework/Versions/A/PerformanceAnalysis
0x00000000053fb000 	/System/Library/PrivateFrameworks/GenerationalStorage.framework/Versions/A/GenerationalStorage
0x00000000053fb000 	/System/Library/Frameworks/OpenGL.framework/Versions/A/OpenGL
0x00000000053fb000 	/System/Library/PrivateFrameworks/Sharing.framework/Versions/A/Sharing
0x00000000053fb000 	/System/Library/Frameworks/CoreGraphics.framework/Versions/A/CoreGraphics
0x00000000053fb000 	/System/Library/Frameworks/CoreText.framework/Versions/A/CoreText
0x00000000053fb000 	/System/Library/Frameworks/ImageIO.framework/Versions/A/ImageIO
0x00000000053fb000 	/usr/lib/libextension.dylib
0x00000000053fb000 	/System/Library/PrivateFrameworks/Backup.framework/Versions/A/Backup
0x00000000053fb000 	/usr/lib/libarchive.2.dylib
0x00000000053fb000 	/System/Library/Frameworks/CFNetwork.framework/Versions/A/CFNetwork
0x00000000053fb000 	/System/Library/Frameworks/SystemConfiguration.framework/Versions/A/SystemConfiguration
0x00000000053fb000 	/usr/lib/libCRFSuite.dylib
0x00000000053fb000 	/usr/lib/libc++.1.dylib
0x00000000053fb000 	/usr/lib/libc++abi.dylib
0x00000000053fb000 	/usr/lib/system/libcache.dylib
0x00000000053fb000 	/usr/lib/system/libcommonCrypto.dylib
0x00000000053fb000 	/usr/lib/system/libcompiler_rt.dylib
0x00000000053fb000 	/usr/lib/system/libcopyfile.dylib
0x00000000053fb000 	/usr/lib/system/libcorecrypto.dylib
0x00000000053fb000 	/usr/lib/system/libdispatch.dylib
0x00000000053fb000 	/usr/lib/system/libdyld.dylib
0x00000000053fb000 	/usr/lib/system/libkeymgr.dylib
0x00000000053fb000 	/usr/lib/system/liblaunch.dylib
0x00000000053fb000 	/usr/lib/system/libmacho.dylib
0x00000000053fb000 	/usr/lib/system/libquarantine.dylib
0x00000000053fb000 	/usr/lib/system/libremovefile.dylib
0x00000000053fb000 	/usr/lib/system/libsystem_asl.dylib
0x00000000053fb000 	/usr/lib/system/libsystem_blocks.dylib
0x00000000053fb000 	/usr/lib/system/libsystem_c.dylib
0x00000000053fb000 	/usr/lib/system/libsystem_configuration.dylib
0x00000000053fb000 	/usr/lib/system/libsystem_coreservices.dylib
0x00000000053fb000 	/usr/lib/system/libsystem_coretls.dylib
0x00000000053fb000 	/usr/lib/system/libsystem_dnssd.dylib
0x00000000053fb000 	/usr/lib/system/libsystem_info.dylib
0x00000000053fb000 	/usr/lib/system/libsystem_kernel.dylib
0x00000000053fb000 	/usr/lib/system/libsystem_m.dylib
0x00000000053fb000 	/usr/lib/system/libsystem_malloc.dylib
0x00000000053fb000 	/usr/lib/system/libsystem_network.dylib
0x00000000053fb000 	/usr/lib/system/libsystem_networkextension.dylib
0x00000000053fb000 	/usr/lib/system/libsystem_notify.dylib
0x00000000053fb000 	/usr/lib/system/libsystem_platform.dylib
0x00000000053fb000 	/usr/lib/system/libsystem_pthread.dylib
0x00000000053fb000 	/usr/lib/system/libsystem_sandbox.dylib
0x00000000053fb000 	/usr/lib/system/libsystem_secinit.dylib
0x00000000053fb000 	/usr/lib/system/libsystem_stats.dylib
0x00000000053fb000 	/usr/lib/system/libsystem_trace.dylib
0x00000000053fb000 	/usr/lib/system/libunc.dylib
0x00000000053fb000 	/usr/lib/system/libunwind.dylib
0x00000000053fb000 	/usr/lib/system/libxpc.dylib
0x00000000053fb000 	/usr/lib/libbz2.1.0.dylib
0x00000000053fb000 	/usr/lib/liblzma.5.dylib
0x00000000053fb000 	/usr/lib/libbsm.0.dylib
0x00000000053fb000 	/usr/lib/libsqlite3.dylib
0x00000000053fb000 	/usr/lib/system/libkxld.dylib
0x00000000053fb000 	/usr/lib/libxar.1.dylib
0x00000000053fb000 	/usr/lib/libpam.2.dylib
0x00000000053fb000 	/usr/lib/libOpenScriptingUtil.dylib
0x00000000053fb000 	/System/Library/Frameworks/CoreServices.framework/Versions/A/Frameworks/FSEvents.framework/Versions/A/FSEvents
0x00000000053fb000 	/System/Library/Frameworks/CoreServices.framework/Versions/A/Frameworks/CarbonCore.framework/Versions/A/CarbonCore
0x00000000053fb000 	/System/Library/Frameworks/CoreServices.framework/Versions/A/Frameworks/Metadata.framework/Versions/A/Metadata
0x00000000053fb000 	/System/Library/Frameworks/CoreServices.framework/Versions/A/Frameworks/OSServices.framework/Versions/A/OSServices
0x00000000053fb000 	/System/Library/Frameworks/CoreServices.framework/Versions/A/Frameworks/SearchKit.framework/Versions/A/SearchKit
0x00000000053fb000 	/System/Library/Frameworks/CoreServices.framework/Versions/A/Frameworks/AE.framework/Versions/A/AE
0x00000000053fb000 	/System/Library/Frameworks/CoreServices.framework/Versions/A/Frameworks/LaunchServices.framework/Versions/A/LaunchServices
0x00000000053fb000 	/System/Library/Frameworks/CoreServices.framework/Versions/A/Frameworks/DictionaryServices.framework/Versions/A/DictionaryServices
0x00000000053fb000 	/System/Library/Frameworks/NetFS.framework/Versions/A/NetFS
0x00000000053fb000 	/System/Library/PrivateFrameworks/NetAuth.framework/Versions/A/NetAuth
0x00000000053fb000 	/System/Library/PrivateFrameworks/login.framework/Versions/A/Frameworks/loginsupport.framework/Versions/A/loginsupport
0x00000000053fb000 	/System/Library/PrivateFrameworks/TCC.framework/Versions/A/TCC
0x00000000053fb000 	/usr/lib/libmecabra.dylib
0x00000000053fb000 	/System/Library/Frameworks/ApplicationServices.framework/Versions/A/Frameworks/ATS.framework/Versions/A/ATS
0x00000000053fb000 	/System/Library/Frameworks/ApplicationServices.framework/Versions/A/Frameworks/ColorSync.framework/Versions/A/ColorSync
0x00000000053fb000 	/System/Library/Frameworks/ApplicationServices.framework/Versions/A/Frameworks/HIServices.framework/Versions/A/HIServices
0x00000000053fb000 	/System/Library/Frameworks/ApplicationServices.framework/Versions/A/Frameworks/LangAnalysis.framework/Versions/A/LangAnalysis
0x00000000053fb000 	/System/Library/Frameworks/ApplicationServices.framework/Versions/A/Frameworks/PrintCore.framework/Versions/A/PrintCore
0x00000000053fb000 	/System/Library/Frameworks/ApplicationServices.framework/Versions/A/Frameworks/QD.framework/Versions/A/QD
0x00000000053fb000 	/System/Library/Frameworks/ApplicationServices.framework/Versions/A/Frameworks/SpeechSynthesis.framework/Versions/A/SpeechSynthesis
0x00000000053fb000 	/System/Library/Frameworks/Accelerate.framework/Versions/A/Accelerate
0x00000000053fb000 	/System/Library/Frameworks/Accelerate.framework/Versions/A/Frameworks/vImage.framework/Versions/A/vImage
0x00000000053fb000 	/System/Library/Frameworks/Accelerate.framework/Versions/A/Frameworks/vecLib.framework/Versions/A/vecLib
0x00000000053fb000 	/System/Library/Frameworks/Accelerate.framework/Versions/A/Frameworks/vecLib.framework/Versions/A/libvDSP.dylib
0x00000000053fb000 	/System/Library/Frameworks/Accelerate.framework/Versions/A/Frameworks/vecLib.framework/Versions/A/libvMisc.dylib
0x00000000053fb000 	/System/Library/Frameworks/Accelerate.framework/Versions/A/Frameworks/vecLib.framework/Versions/A/libLAPACK.dylib
0x00000000053fb000 	/System/Library/Frameworks/Accelerate.framework/Versions/A/Frameworks/vecLib.framework/Versions/A/libBLAS.dylib
0x00000000053fb000 	/System/Library/Frameworks/Accelerate.framework/Versions/A/Frameworks/vecLib.framework/Versions/A/libLinearAlgebra.dylib
0x00000000053fb000 	/System/Library/Frameworks/ApplicationServices.framework/Versions/A/Frameworks/ATS.framework/Versions/A/Resources/libFontParser.dylib
0x00000000053fb000 	/System/Library/Frameworks/ApplicationServices.framework/Versions/A/Frameworks/ATS.framework/Versions/A/Resources/libFontRegistry.dylib
0x00000000053fb000 	/System/Library/PrivateFrameworks/AppleVPA.framework/Versions/A/AppleVPA
0x00000000053fb000 	/System/Library/PrivateFrameworks/AppleJPEG.framework/Versions/A/AppleJPEG
0x00000000053fb000 	/System/Library/Frameworks/ImageIO.framework/Versions/A/Resources/libJPEG.dylib
0x00000000053fb000 	/System/Library/Frameworks/ImageIO.framework/Versions/A/Resources/libTIFF.dylib
0x00000000053fb000 	/System/Library/Frameworks/ImageIO.framework/Versions/A/Resources/libPng.dylib
0x00000000053fb000 	/System/Library/Frameworks/ImageIO.framework/Versions/A/Resources/libGIF.dylib
0x00000000053fb000 	/System/Library/Frameworks/ImageIO.framework/Versions/A/Resources/libJP2.dylib
0x00000000053fb000 	/System/Library/Frameworks/ImageIO.framework/Versions/A/Resources/libRadiance.dylib
0x00000000053fb000 	/System/Library/Frameworks/CoreVideo.framework/Versions/A/CoreVideo
0x00000000053fb000 	/System/Library/Frameworks/OpenGL.framework/Versions/A/Libraries/libGLU.dylib
0x00000000053fb000 	/System/Library/Frameworks/OpenGL.framework/Versions/A/Libraries/libGFXShared.dylib
0x00000000053fb000 	/System/Library/Frameworks/OpenGL.framework/Versions/A/Libraries/libGL.dylib
0x00000000053fb000 	/System/Library/Frameworks/OpenGL.framework/Versions/A/Libraries/libGLImage.dylib
0x00000000053fb000 	/System/Library/Frameworks/OpenGL.framework/Versions/A/Libraries/libCVMSPluginSupport.dylib
0x00000000053fb000 	/System/Library/Frameworks/OpenGL.framework/Versions/A/Libraries/libCoreVMClient.dylib
0x00000000053fb000 	/usr/lib/libcups.2.dylib
0x00000000053fb000 	/System/Library/Frameworks/Kerberos.framework/Versions/A/Kerberos
0x00000000053fb000 	/System/Library/Frameworks/GSS.framework/Versions/A/GSS
0x00000000053fb000 	/usr/lib/libresolv.9.dylib
0x00000000053fb000 	/usr/lib/libiconv.2.dylib
0x00000000053fb000 	/System/Library/PrivateFrameworks/Heimdal.framework/Versions/A/Heimdal
0x00000000053fb000 	/usr/lib/libheimdal-asn1.dylib
0x00000000053fb000 	/System/Library/Frameworks/OpenDirectory.framework/Versions/A/OpenDirectory
0x00000000053fb000 	/System/Library/PrivateFrameworks/CommonAuth.framework/Versions/A/CommonAuth
0x00000000053fb000 	/System/Library/Frameworks/OpenDirectory.framework/Versions/A/Frameworks/CFOpenDirectory.framework/Versions/A/CFOpenDirectory
0x00000000053fb000 	/System/Library/Frameworks/SecurityFoundation.framework/Versions/A/SecurityFoundation
0x00000000053fb000 	/System/Library/PrivateFrameworks/LanguageModeling.framework/Versions/A/LanguageModeling
0x00000000053fb000 	/usr/lib/libcmph.dylib
0x00000000053fb000 	/System/Library/Frameworks/ServiceManagement.framework/Versions/A/ServiceManagement
0x00000000053fb000 	/usr/lib/libxslt.1.dylib
0x00000000053fb000 	/System/Library/Frameworks/Carbon.framework/Versions/A/Frameworks/Ink.framework/Versions/A/Ink
0x00000000053fb000 	/System/Library/Frameworks/QuartzCore.framework/Versions/A/Frameworks/CoreImage.framework/Versions/A/CoreImage
0x00000000053fb000 	/System/Library/PrivateFrameworks/CrashReporterSupport.framework/Versions/A/CrashReporterSupport
0x00000000053fb000 	/System/Library/Frameworks/OpenCL.framework/Versions/A/OpenCL
0x00000000053fb000 	/System/Library/PrivateFrameworks/FaceCore.framework/Versions/A/FaceCore
0x00000000053fb000 	/System/Library/PrivateFrameworks/Ubiquity.framework/Versions/A/Ubiquity
0x00000000053fb000 	/System/Library/PrivateFrameworks/IconServices.framework/Versions/A/IconServices
0x00000000053fb000 	/System/Library/PrivateFrameworks/ChunkingLibrary.framework/Versions/A/ChunkingLibrary
0x00000000053fb000 	/System/Library/PrivateFrameworks/Apple80211.framework/Versions/A/Apple80211
0x00000000053fb000 	/System/Library/Frameworks/CoreWLAN.framework/Versions/A/CoreWLAN
0x00000000053fb000 	/System/Library/Frameworks/IOBluetooth.framework/Versions/A/IOBluetooth
0x00000000053fb000 	/System/Library/PrivateFrameworks/CoreWiFi.framework/Versions/A/CoreWiFi
0x00000000053fb000 	/System/Library/Frameworks/CoreBluetooth.framework/Versions/A/CoreBluetooth
0x00000000053fb000 	/System/Library/PrivateFrameworks/DebugSymbols.framework/Versions/A/DebugSymbols
0x00000000053fb000 	/System/Library/PrivateFrameworks/CoreSymbolication.framework/Versions/A/CoreSymbolication
0x00000000053fb000 	/System/Library/PrivateFrameworks/Symbolication.framework/Versions/A/Symbolication
0x00000000053fb000 	/System/Library/PrivateFrameworks/SpeechRecognitionCore.framework/Versions/A/SpeechRecognitionCore
0x0000000106400000 	/Library/Java/JavaVirtualMachines/jdk1.8.0_20.jdk/Contents/Home/jre/lib/server/libjvm.dylib
0x00000000053fb000 	/usr/lib/libstdc++.6.dylib
0x00000001053d1000 	/Library/Java/JavaVirtualMachines/jdk1.8.0_20.jdk/Contents/Home/jre/lib/libverify.dylib
0x000000010731b000 	/Library/Java/JavaVirtualMachines/jdk1.8.0_20.jdk/Contents/Home/jre/lib/libjava.dylib
0x00000001053e9000 	/Library/Java/JavaVirtualMachines/jdk1.8.0_20.jdk/Contents/Home/jre/lib/libzip.dylib
0x0000000122f22000 	/System/Library/Frameworks/JavaVM.framework/Frameworks/JavaRuntimeSupport.framework/JavaRuntimeSupport
0x0000000122f3a000 	/System/Library/Frameworks/JavaVM.framework/Versions/A/Frameworks/JavaNativeFoundation.framework/Versions/A/JavaNativeFoundation
0x00000001053f3000 	/System/Library/Frameworks/JavaVM.framework/Versions/A/JavaVM
0x00000000053fb000 	/System/Library/Frameworks/Carbon.framework/Versions/A/Carbon
0x0000000122f4f000 	/System/Library/PrivateFrameworks/JavaLaunching.framework/Versions/A/JavaLaunching
0x00000000053fb000 	/System/Library/Frameworks/Carbon.framework/Versions/A/Frameworks/CommonPanels.framework/Versions/A/CommonPanels
0x00000000053fb000 	/System/Library/Frameworks/Carbon.framework/Versions/A/Frameworks/Help.framework/Versions/A/Help
0x00000000053fb000 	/System/Library/Frameworks/Carbon.framework/Versions/A/Frameworks/ImageCapture.framework/Versions/A/ImageCapture
0x00000000053fb000 	/System/Library/Frameworks/Carbon.framework/Versions/A/Frameworks/OpenScripting.framework/Versions/A/OpenScripting
0x00000000053fb000 	/System/Library/Frameworks/Carbon.framework/Versions/A/Frameworks/Print.framework/Versions/A/Print
0x00000000053fb000 	/System/Library/Frameworks/Carbon.framework/Versions/A/Frameworks/SecurityHI.framework/Versions/A/SecurityHI
0x000000012508d000 	/Applications/IntelliJ IDEA 14 CE.app/Contents/bin/libbreakgen64.jnilib
0x0000000125193000 	/Library/Java/JavaVirtualMachines/jdk1.8.0_20.jdk/Contents/Home/jre/lib/libnet.dylib
0x00000001251f2000 	/Library/Java/JavaVirtualMachines/jdk1.8.0_20.jdk/Contents/Home/jre/lib/libawt.dylib
0x00000001252a1000 	/Library/Java/JavaVirtualMachines/jdk1.8.0_20.jdk/Contents/Home/jre/lib/./libmlib_image.dylib
0x000000012536d000 	/Library/Java/JavaVirtualMachines/jdk1.8.0_20.jdk/Contents/Home/jre/lib/libawt_lwawt.dylib
0x0000000125420000 	/Library/Java/JavaVirtualMachines/jdk1.8.0_20.jdk/Contents/Home/jre/lib/./libosxapp.dylib
0x00000000053fb000 	/System/Library/Frameworks/ExceptionHandling.framework/Versions/A/ExceptionHandling
0x00000000053fb000 	/System/Library/PrivateFrameworks/CoreServicesInternal.framework/Versions/A/CoreServicesInternal
0x00000000053fb000 	/System/Library/PrivateFrameworks/CloudDocs.framework/Versions/A/CloudDocs
0x00000000053fb000 	/System/Library/PrivateFrameworks/CoreDuet.framework/Versions/A/CoreDuet
0x00000000053fb000 	/System/Library/Frameworks/CloudKit.framework/Versions/A/CloudKit
0x00000000053fb000 	/System/Library/PrivateFrameworks/ProtocolBuffer.framework/Versions/A/ProtocolBuffer
0x00000000053fb000 	/System/Library/PrivateFrameworks/CoreDuetDaemonProtocol.framework/Versions/A/CoreDuetDaemonProtocol
0x00000000053fb000 	/System/Library/PrivateFrameworks/CoreDuetDebugLogging.framework/Versions/A/CoreDuetDebugLogging
0x00000000053fb000 	/System/Library/PrivateFrameworks/MMCS.framework/Versions/A/MMCS
0x00000000053fb000 	/System/Library/Frameworks/CoreLocation.framework/Versions/A/CoreLocation
0x00000000053fb000 	/System/Library/PrivateFrameworks/ProtectedCloudStorage.framework/Versions/A/ProtectedCloudStorage
0x00000000053fb000 	/System/Library/PrivateFrameworks/GeoServices.framework/Versions/A/GeoServices
0x0000000126a3b000 	/System/Library/Frameworks/CoreGraphics.framework/Versions/A/Resources/libCGCMS.A.dylib
0x000000012781e000 	/System/Library/Frameworks/CoreGraphics.framework/Versions/A/Resources/libRIP.A.dylib
0x0000000127b64000 	/System/Library/Frameworks/CoreGraphics.framework/Versions/A/Resources/libCGXType.A.dylib
0x00000000053fb000 	/System/Library/Frameworks/OpenCL.framework/Versions/A/Libraries/libcldcpuengine.dylib
0x00000000053fb000 	/System/Library/PrivateFrameworks/DiskImages.framework/Versions/A/DiskImages
0x00000000053fb000 	/System/Library/Frameworks/DiscRecording.framework/Versions/A/DiscRecording
0x00000000053fb000 	/usr/lib/libcsfde.dylib
0x00000000053fb000 	/usr/lib/libcurl.4.dylib
0x00000000053fb000 	/System/Library/PrivateFrameworks/MediaKit.framework/Versions/A/MediaKit
0x00000000053fb000 	/usr/lib/libCoreStorage.dylib
0x00000000053fb000 	/System/Library/PrivateFrameworks/EFILogin.framework/Versions/A/EFILogin
0x00000000053fb000 	/usr/lib/libutil.dylib
0x00000000053fb000 	/System/Library/PrivateFrameworks/FindMyDevice.framework/Versions/A/FindMyDevice
0x00000000053fb000 	/System/Library/Frameworks/LDAP.framework/Versions/A/LDAP
0x00000000053fb000 	/usr/lib/libsasl2.2.dylib
0x00000000053fb000 	/System/Library/PrivateFrameworks/CoreDaemon.framework/Versions/B/CoreDaemon
0x00000000053fb000 	/usr/lib/libcrypto.0.9.8.dylib
0x00000000053fb000 	/System/Library/PrivateFrameworks/AppleSRP.framework/Versions/A/AppleSRP
0x00000000053fb000 	/System/Library/PrivateFrameworks/TrustEvaluationAgent.framework/Versions/A/TrustEvaluationAgent
0x00000001285d7000 	cl_kernels
0x00000001285d9000 	/System/Library/Frameworks/OpenCL.framework/Versions/A/Libraries/ImageFormats/unorm8_bgra.dylib
0x00000001285c9000 	cl_kernels
0x00000000053fb000 	/System/Library/PrivateFrameworks/FamilyControls.framework/Versions/A/FamilyControls
0x00000000053fb000 	/System/Library/PrivateFrameworks/CommerceKit.framework/Versions/A/Frameworks/CommerceCore.framework/Versions/A/CommerceCore
0x00000000053fb000 	/System/Library/PrivateFrameworks/SystemAdministration.framework/Versions/A/SystemAdministration
0x00000000053fb000 	/System/Library/PrivateFrameworks/AppContainer.framework/Versions/A/AppContainer
0x00000000053fb000 	/System/Library/PrivateFrameworks/SecCodeWrapper.framework/Versions/A/SecCodeWrapper
0x00000000053fb000 	/System/Library/Frameworks/DirectoryService.framework/Versions/A/DirectoryService
0x00000000053fb000 	/System/Library/PrivateFrameworks/LoginUIKit.framework/Versions/A/Frameworks/LoginUICore.framework/Versions/A/LoginUICore
0x00000000053fb000 	/usr/lib/libodfde.dylib
0x0000000129b12000 	/Library/Java/JavaVirtualMachines/jdk1.8.0_20.jdk/Contents/Home/jre/lib/libfontmanager.dylib
0x0000000129b78000 	/Users/marcusbrooks/Dropbox/Documents/Voxel Engine/Voxel LWJGL2/libs/lwjgl-2.9.3/native/macosx/liblwjgl.dylib
0x00000001285d2000 	/Library/Java/JavaVirtualMachines/jdk1.8.0_20.jdk/Contents/Home/jre/lib/libjawt.dylib
0x0000000129bfa000 	/System/Library/Frameworks/OpenGL.framework/Resources/GLEngine.bundle/GLEngine
0x00000000053fb000 	/System/Library/Frameworks/OpenGL.framework/Versions/A/Libraries/libGLProgrammability.dylib
0x0000000000000000 	/System/Library/Extensions/AppleIntelHD5000GraphicsGLDriver.bundle/Contents/MacOS/AppleIntelHD5000GraphicsGLDriver
0x00000000053fb000 	/System/Library/PrivateFrameworks/IOAccelerator.framework/Versions/A/IOAccelerator
0x00000000053fb000 	/System/Library/PrivateFrameworks/GPUSupport.framework/Versions/A/Libraries/libGPUSupportMercury.dylib
0x00000000053fb000 	/System/Library/Frameworks/OpenGL.framework/Versions/A/Libraries//libLLVMContainer.dylib
0x0000000000000000 	/System/Library/Extensions/GeForceGLDriver.bundle/Contents/MacOS/GeForceGLDriver
0x00000000053fb000 	/System/Library/Extensions/GeForceGLDriver.bundle/Contents/MacOS/libclh.dylib
0x000000012a1ea000 	/System/Library/Frameworks/OpenGL.framework/Resources//GLRendererFloat.bundle/GLRendererFloat

VM Arguments:
jvm_args: -Djava.library.path=libs/lwjgl-2.9.3/native/macosx -Didea.launcher.port=7537 -Didea.launcher.bin.path=/Applications/IntelliJ IDEA 14 CE.app/Contents/bin -Dfile.encoding=UTF-8 
java_command: com.intellij.rt.execution.application.AppMain main.Main
java_class_path (initial): /Library/Java/JavaVirtualMachines/jdk1.8.0_20.jdk/Contents/Home/lib/ant-javafx.jar:/Library/Java/JavaVirtualMachines/jdk1.8.0_20.jdk/Contents/Home/lib/dt.jar:/Library/Java/JavaVirtualMachines/jdk1.8.0_20.jdk/Contents/Home/lib/javafx-mx.jar:/Library/Java/JavaVirtualMachines/jdk1.8.0_20.jdk/Contents/Home/lib/jconsole.jar:/Library/Java/JavaVirtualMachines/jdk1.8.0_20.jdk/Contents/Home/lib/sa-jdi.jar:/Library/Java/JavaVirtualMachines/jdk1.8.0_20.jdk/Contents/Home/lib/tools.jar:/Library/Java/JavaVirtualMachines/jdk1.8.0_20.jdk/Contents/Home/jre/lib/charsets.jar:/Library/Java/JavaVirtualMachines/jdk1.8.0_20.jdk/Contents/Home/jre/lib/deploy.jar:/Library/Java/JavaVirtualMachines/jdk1.8.0_20.jdk/Contents/Home/jre/lib/javaws.jar:/Library/Java/JavaVirtualMachines/jdk1.8.0_20.jdk/Contents/Home/jre/lib/jce.jar:/Library/Java/JavaVirtualMachines/jdk1.8.0_20.jdk/Contents/Home/jre/lib/jfr.jar:/Library/Java/JavaVirtualMachines/jdk1.8.0_20.jdk/Contents/Home/jre/lib/jfxswt.jar:/Library/Java/JavaVirtualMachines/jdk1.8.0_20.jdk/Contents/Home/jre/lib/jsse.jar:/Library/Java/JavaVirtualMachines/jdk1.8.0_20.jdk/Contents/Home/jre/lib/management-agent.jar:/Library/Java/JavaVirtualMachines/jdk1.8.0_20.jdk/Contents/Home/jre/lib/plugin.jar:/Library/Java/JavaVirtualMachines/jdk1.8.0_20.jdk/Contents/Home/jre/lib/resources.jar:/Library/Java/JavaVirtualMachines/jdk1.8.0_20.jdk/Contents/Home/jre/lib/rt.jar:/Library/Java/JavaVirtualMachines/jdk1.8.0_20.jdk/Contents/Home/jre/lib/ext/cldrdata.jar:/Library/Java/JavaVirtualMachines/jdk1.8.0_20.jdk/Contents/Home/jre/lib/ext/dnsns.jar:/Library/Java/JavaVirtualMachines/jdk1.8.0_20.jdk/Contents/Home/jre/lib/ext/jfxrt.jar:/Library/Java/JavaVirtualMachines/jdk1.8.0_20.jdk/Contents/Home/jre/lib/ext/localedata.jar:/Library/Java/JavaVirtualMachines/jdk1.8.0_20.jdk/Contents/Home/jre/lib/ext/nashorn.jar:/Library/Java/JavaVirtualMachines/jdk1.8.0_20.jdk/Contents/Home/jre/lib/ext/sunec.jar:/Library/Java/JavaVirtualMachines/jdk1.8.0_20.jdk/C
Launcher Type: SUN_STANDARD

Environment Variables:
PATH=/usr/local/bin:/usr/bin:/bin:/usr/sbin:/sbin:/usr/texbin
SHELL=/bin/bash

Signal Handlers:
SIGSEGV: [libjvm.dylib+0x578fd7], sa_mask[0]=11111111011111110111111111111111, sa_flags=SA_ONSTACK|SA_RESTART|SA_SIGINFO
SIGBUS: [libjvm.dylib+0x578fd7], sa_mask[0]=11111111011111110111111111111111, sa_flags=SA_RESTART|SA_SIGINFO
SIGFPE: [libjvm.dylib+0x45ab0c], sa_mask[0]=11111111011111110111111111111111, sa_flags=SA_RESTART|SA_SIGINFO
SIGPIPE: [libjvm.dylib+0x45ab0c], sa_mask[0]=11111111011111110111111111111111, sa_flags=SA_RESTART|SA_SIGINFO
SIGXFSZ: [libjvm.dylib+0x45ab0c], sa_mask[0]=11111111011111110111111111111111, sa_flags=SA_RESTART|SA_SIGINFO
SIGILL: [libjvm.dylib+0x45ab0c], sa_mask[0]=11111111011111110111111111111111, sa_flags=SA_RESTART|SA_SIGINFO
SIGUSR1: SIG_DFL, sa_mask[0]=00000000000000000000000000000000, sa_flags=none
SIGUSR2: [libjvm.dylib+0x45a62a], sa_mask[0]=00100000000000000000000000000000, sa_flags=SA_RESTART|SA_SIGINFO
SIGHUP: [libjvm.dylib+0x458bfd], sa_mask[0]=11111111011111110111111111111111, sa_flags=SA_RESTART|SA_SIGINFO
SIGINT: [libjvm.dylib+0x458bfd], sa_mask[0]=11111111011111110111111111111111, sa_flags=SA_RESTART|SA_SIGINFO
SIGTERM: [libjvm.dylib+0x458bfd], sa_mask[0]=11111111011111110111111111111111, sa_flags=SA_RESTART|SA_SIGINFO
SIGQUIT: [libjvm.dylib+0x458bfd], sa_mask[0]=11111111011111110111111111111111, sa_flags=SA_RESTART|SA_SIGINFO


---------------  S Y S T E M  ---------------

OS:Bsduname:Darwin 14.3.0 Darwin Kernel Version 14.3.0: Thu Jan 22 23:54:42 PST 2015; root:xnu-2782.20.26~5/RELEASE_X86_64 x86_64
rlimit: STACK 8192k, CORE 0k, NPROC 709, NOFILE 10240, AS infinity
load average:2.45 1.85 1.79

CPU:total 8 (4 cores per cpu, 2 threads per core) family 6 model 70 stepping 1, cmov, cx8, fxsr, mmx, sse, sse2, sse3, ssse3, sse4.1, sse4.2, popcnt, avx, avx2, aes, clmul, erms, rtm, lzcnt, ht, tsc, tscinvbit, bmi1, bmi2

Memory: 4k page, physical 16777216k(2254616k free)

/proc/meminfo:


vm_info: Java HotSpot(TM) 64-Bit Server VM (25.20-b23) for bsd-amd64 JRE (1.8.0_20-b26), built on Jul 30 2014 13:37:47 by "java_re" with gcc 4.2.1 (Based on Apple Inc. build 5658) (LLVM build 2336.9.00)

time: Fri Feb 27 00:48:09 2015
elapsed time: 4 seconds (0d 0h 0m 4s)

